name="Community Flash Patch"
tags={
	"Fixes"
}
picture="thumbnail2.jpg"
supported_version="3.1.1"
path="C:/Users/rover/Documents/Paradox Interactive/Stellaris/mod/Community Flash Patch"
remote_file_id="2026808491"